{
  "AWS": "AWS",
  "Bodhost": "Bodhost",
  "Dedicated Solutions": "Dedicated Solutions",
  "Fedora Sponsors": "Fedora Sponsors",
  "Heficed": "Heficed",
  "Ibiblio": "Ibiblio",
  "Interested in sponsoring something for Fedora?": "Interested in sponsoring something for Fedora?",
  "Internetx": "Internetx",
  "Open Source Lab": "Open Source Lab",
  "Powered by AWS Cloud Computing": "Powered by AWS Cloud Computing",
  "Proio": "Proio",
  "Red Hat, Inc. is the primary sponsor for the Fedora Project. Red Hat provides the Fedora Project with a wide variety of resources, including full-time employee support, infrastructure, hardware and bandwidth, event funding, and legal counsel.": "Red Hat, Inc. is the primary sponsor for the Fedora Project. Red Hat provides the Fedora Project with a wide variety of resources, including full-time employee support, infrastructure, hardware and bandwidth, event funding, and legal counsel.",
  "Sponsors": "Sponsors",
  "The Fedora Project is also grateful to the following sponsors for providing substantial support.": "The Fedora Project is also grateful to the following sponsors for providing substantial support.",
  "The Fedora Project is proud to have the following organizations as sponsors.": "The Fedora Project is proud to have the following organizations as sponsors.",
  "To sponsor our [Flock to Fedora](https://flocktofedora.org) conference, see the prospectus or email [sponsors@fedoraproject.org](mailto:sponsors@fedoraproject.org).\n\nTo mirror the repos, see the [Mirroring page](https://fedoraproject.org/wiki/Infrastructure/Mirroring) or contact the [Infrastructure team](https://docs.fedoraproject.org/en-US/infra/#_communicating).": "To sponsor our [Flock to Fedora](https://flocktofedora.org) conference, see the prospectus or email [sponsors{'@'}fedoraproject.org](mailto:sponsors{'@'}fedoraproject.org).\n\nTo mirror the repos, see the [Mirroring page](https://fedoraproject.org/wiki/Infrastructure/Mirroring) or contact the [Infrastructure team](https://docs.fedoraproject.org/en-US/infra/#_communicating)."
}